# TE pbp stats snapshot test

    Code
      te_pbp_stats
    Output
      # A tibble: 55 x 59
         player_id  player_display_name player_name position team  games
         <chr>      <chr>               <chr>       <chr>    <chr> <int>
       1 00-0030061 Zach Ertz           Z.Ertz      TE       ARI       1
       2 00-0031260 Logan Thomas        L.Thomas    TE       WAS       1
       3 00-0031610 Darren Waller       D.Waller    TE       NYG       1
       4 00-0032062 Blake Bell          B.Bell      TE       KC        1
       5 00-0032392 Austin Hooper       A.Hooper    TE       LV        1
       6 00-0033090 Hunter Henry        H.Henry     TE       NE        1
       7 00-0033110 Tyler Higbee        T.Higbee    TE       LA        1
       8 00-0033217 Mo Alie-Cox         M.Alie-Cox  TE       IND       1
       9 00-0033288 George Kittle       G.Kittle    TE       SF        1
      10 00-0033881 Evan Engram         E.Engram    TE       JAX       1
      # i 45 more rows
      # i 53 more variables: fpts_std_4pt_td <dbl>, ppg_std_4pt_td <dbl>,
      #   fpts_half_ppr_4pt_td <dbl>, ppg_half_ppr_4pt_td <dbl>,
      #   fpts_ppr_4pt_td <dbl>, ppg_ppr_4pt_td <dbl>, fpts_std_6pt_td <dbl>,
      #   ppg_std_6pt_td <dbl>, fpts_half_ppr_6pt_td <dbl>,
      #   ppg_half_ppr_6pt_td <dbl>, fpts_ppr_6pt_td <dbl>, ppg_ppr_6pt_td <dbl>,
      #   targets <int>, receptions <int>, receiving_yards <dbl>, ...
